Play with metaphors
…
Get averages per item:

item_avgs <- adj_noun %>% group_by(noun, item) %>% 
  summarize(pmi = mean(pmi)) %>% ungroup()

## `summarise()` has grouped output by 'noun'. You can override using the `.groups` argument.

item_avgs

## # A tibble: 140 x 3
##    noun    item      pmi
##    <chr>   <chr>   <dbl>
##  1 amount  big   -3.95  
##  2 amount  high  -2.46  
##  3 amount  huge  -0.493 
##  4 amount  large -0.119 
##  5 amount  low   -3.63  
##  6 amount  small -0.0334
##  7 amount  tiny  -0.362 
##  8 benefit big   -3.84  
##  9 benefit high  -5.93  
## 10 benefit huge  -2.61  
## #  with 130 more rows
…
Get averages per item:

item_avgs <- big_df %>% group_by(noun, item) %>% 
  summarize(pmi = mean(pmi)) %>% ungroup()

## `summarise()` has grouped output by 'noun'. You can override using the `.groups` argument.

item_avgs

## # A tibble: 480 x 3
##    noun   item          pmi
##    <chr>  <chr>       <dbl>
##  1 amount ascending  -1.26 
##  2 amount big        -3.95 
##  3 amount climbing   -4.76 
##  4 amount decreasing -0.825
##  5 amount descending -3.41 
##  6 amount dipping    -2.85 
##  7 amount dropping   -5.49 
##  8 amount falling    -6.08 
##  9 amount growing    -3.05 
## 10 amount high       -2.46 
## #  with 470 more rows
…
